{
    "swagger": "2.0",
    "info": {
        "termsOfService": "http://swagger.io/terms/",
        "contact": {
            "name": "API Support",
            "url": "http://www.swagger.io/support",
            "email": "support@swagger.io"
        },
        "license": {
            "name": "Apache 2.0",
            "url": "http://www.apache.org/licenses/LICENSE-2.0.html"
        }
    },
    "paths": {
        "/comment": {
            "post": {
                "security": [
                    {
                        "BearerToken": []
                    }
                ],
                "description": "Digunakan oleh user untuk melakukan comment pada sebuah thread.",
                "produces": [
                    "application/json"
                ],
                "tags": [
                    "Comment"
                ],
                "summary": "User Comment on Thread.",
                "parameters": [
                    {
                        "description": "the body to comment thread",
                        "name": "Body",
                        "in": "body",
                        "required": true,
                        "schema": {
                            "$ref": "#/definitions/web_comment.CommentCreateRequest"
                        }
                    },
                    {
                        "type": "string",
                        "description": "Authorization. How to input in swagger : 'Bearer \u003cinsert_your_token_here\u003e'",
                        "name": "Authorization",
                        "in": "header",
                        "required": true
                    }
                ],
                "responses": {
                    "200": {
                        "description": "OK",
                        "schema": {
                            "$ref": "#/definitions/web.WebResponse"
                        }
                    }
                }
            }
        },
        "/comment/{commentId}": {
            "delete": {
                "security": [
                    {
                        "BearerToken": []
                    }
                ],
                "description": "Digunakan oleh user untuk menghapus comment pada sebuah thread.",
                "produces": [
                    "application/json"
                ],
                "tags": [
                    "Comment"
                ],
                "summary": "User Deleting Comment on Thread.",
                "parameters": [
                    {
                        "type": "string",
                        "description": "comment id",
                        "name": "commentId",
                        "in": "path",
                        "required": true
                    },
                    {
                        "type": "string",
                        "description": "Authorization. How to input in swagger : 'Bearer \u003cinsert_your_token_here\u003e'",
                        "name": "Authorization",
                        "in": "header",
                        "required": true
                    }
                ],
                "responses": {
                    "200": {
                        "description": "OK",
                        "schema": {
                            "$ref": "#/definitions/web.WebResponse"
                        }
                    }
                }
            }
        },
        "/image": {
            "post": {
                "security": [
                    {
                        "BearerToken": []
                    }
                ],
                "description": "Digunakan oleh user untuk menambahkan image url pada thread.",
                "produces": [
                    "application/json"
                ],
                "tags": [
                    "Image"
                ],
                "summary": "User Add Thread Image.",
                "parameters": [
                    {
                        "description": "the body to updating thread",
                        "name": "Body",
                        "in": "body",
                        "required": true,
                        "schema": {
                            "$ref": "#/definitions/web_image.ImageRequest"
                        }
                    },
                    {
                        "type": "string",
                        "description": "Authorization. How to input in swagger : 'Bearer \u003cinsert_your_token_here\u003e'",
                        "name": "Authorization",
                        "in": "header",
                        "required": true
                    }
                ],
                "responses": {
                    "200": {
                        "description": "OK",
                        "schema": {
                            "$ref": "#/definitions/web.WebResponse"
                        }
                    }
                }
            }
        },
        "/image/{imageId}": {
            "delete": {
                "security": [
                    {
                        "BearerToken": []
                    }
                ],
                "description": "Digunakan oleh user untuk menghapus image url pada thread.",
                "produces": [
                    "application/json"
                ],
                "tags": [
                    "Image"
                ],
                "summary": "User Delete Thread Image.",
                "parameters": [
                    {
                        "type": "string",
                        "description": "image id",
                        "name": "imageId",
                        "in": "path",
                        "required": true
                    },
                    {
                        "type": "string",
                        "description": "Authorization. How to input in swagger : 'Bearer \u003cinsert_your_token_here\u003e'",
                        "name": "Authorization",
                        "in": "header",
                        "required": true
                    }
                ],
                "responses": {
                    "200": {
                        "description": "OK",
                        "schema": {
                            "$ref": "#/definitions/web.WebResponse"
                        }
                    }
                }
            }
        },
        "/like/{commentId}": {
            "post": {
                "security": [
                    {
                        "BearerToken": []
                    }
                ],
                "description": "Digunakan oleh user untuk melakukan like pada sebuah comment",
                "produces": [
                    "application/json"
                ],
                "tags": [
                    "Like"
                ],
                "summary": "User Like on Comment.",
                "parameters": [
                    {
                        "type": "string",
                        "description": "comment id",
                        "name": "commentId",
                        "in": "path",
                        "required": true
                    },
                    {
                        "type": "string",
                        "description": "Authorization. How to input in swagger : 'Bearer \u003cinsert_your_token_here\u003e'",
                        "name": "Authorization",
                        "in": "header",
                        "required": true
                    }
                ],
                "responses": {
                    "200": {
                        "description": "OK",
                        "schema": {
                            "$ref": "#/definitions/web.WebResponse"
                        }
                    }
                }
            },
            "delete": {
                "security": [
                    {
                        "BearerToken": []
                    }
                ],
                "description": "Digunakan oleh user untuk membatalkan like pada sebuah comment.",
                "produces": [
                    "application/json"
                ],
                "tags": [
                    "Like"
                ],
                "summary": "User Undo Like on Comment.",
                "parameters": [
                    {
                        "type": "string",
                        "description": "comment id",
                        "name": "commentId",
                        "in": "path",
                        "required": true
                    },
                    {
                        "type": "string",
                        "description": "Authorization. How to input in swagger : 'Bearer \u003cinsert_your_token_here\u003e'",
                        "name": "Authorization",
                        "in": "header",
                        "required": true
                    }
                ],
                "responses": {
                    "200": {
                        "description": "OK",
                        "schema": {
                            "$ref": "#/definitions/web.WebResponse"
                        }
                    }
                }
            }
        },
        "/login": {
            "post": {
                "description": "Digunakan untuk login ke akun user.",
                "produces": [
                    "application/json"
                ],
                "tags": [
                    "Area User"
                ],
                "summary": "User Login.",
                "parameters": [
                    {
                        "description": "the body to login",
                        "name": "Body",
                        "in": "body",
                        "required": true,
                        "schema": {
                            "$ref": "#/definitions/web_user.UserLoginRequest"
                        }
                    }
                ],
                "responses": {
                    "200": {
                        "description": "OK",
                        "schema": {
                            "allOf": [
                                {
                                    "$ref": "#/definitions/web.WebResponse"
                                },
                                {
                                    "type": "object",
                                    "properties": {
                                        "data": {
                                            "$ref": "#/definitions/web_user.UserLoginResponse"
                                        }
                                    }
                                }
                            ]
                        }
                    }
                }
            }
        },
        "/rating": {
            "put": {
                "security": [
                    {
                        "BearerToken": []
                    }
                ],
                "description": "Digunakan oleh user untuk mengganti rating sebuah thread yang pernah ia rate",
                "produces": [
                    "application/json"
                ],
                "tags": [
                    "Rating"
                ],
                "summary": "User Change Rate",
                "parameters": [
                    {
                        "description": "the body to rating thread",
                        "name": "Body",
                        "in": "body",
                        "required": true,
                        "schema": {
                            "$ref": "#/definitions/web_rating.RatingCreateRequest"
                        }
                    },
                    {
                        "type": "string",
                        "description": "Authorization. How to input in swagger : 'Bearer \u003cinsert_your_token_here\u003e'",
                        "name": "Authorization",
                        "in": "header",
                        "required": true
                    }
                ],
                "responses": {
                    "200": {
                        "description": "OK",
                        "schema": {
                            "$ref": "#/definitions/web.WebResponse"
                        }
                    }
                }
            },
            "post": {
                "security": [
                    {
                        "BearerToken": []
                    }
                ],
                "description": "Digunakan oleh user untuk memberikan rating pada sebuah Thread.",
                "produces": [
                    "application/json"
                ],
                "tags": [
                    "Rating"
                ],
                "summary": "User Rating a Thread.",
                "parameters": [
                    {
                        "description": "the body to rating thread",
                        "name": "Body",
                        "in": "body",
                        "required": true,
                        "schema": {
                            "$ref": "#/definitions/web_rating.RatingCreateRequest"
                        }
                    },
                    {
                        "type": "string",
                        "description": "Authorization. How to input in swagger : 'Bearer \u003cinsert_your_token_here\u003e'",
                        "name": "Authorization",
                        "in": "header",
                        "required": true
                    }
                ],
                "responses": {
                    "200": {
                        "description": "OK",
                        "schema": {
                            "$ref": "#/definitions/web.WebResponse"
                        }
                    }
                }
            }
        },
        "/register": {
            "post": {
                "description": "Digunakan oleh user untuk mendaftarkan akun baru.",
                "produces": [
                    "application/json"
                ],
                "tags": [
                    "Area User"
                ],
                "summary": "User Register.",
                "parameters": [
                    {
                        "description": "the body to register (phone example: +62081232323)",
                        "name": "Body",
                        "in": "body",
                        "required": true,
                        "schema": {
                            "$ref": "#/definitions/web_user.UserRegisterRequest"
                        }
                    }
                ],
                "responses": {
                    "200": {
                        "description": "OK",
                        "schema": {
                            "allOf": [
                                {
                                    "$ref": "#/definitions/web.WebResponse"
                                },
                                {
                                    "type": "object",
                                    "properties": {
                                        "data": {
                                            "$ref": "#/definitions/web_user.UserResponse"
                                        }
                                    }
                                }
                            ]
                        }
                    }
                }
            }
        },
        "/resend-verification/{username}": {
            "get": {
                "description": "Digunakan oleh user ketika ingin mengirimkan link verifikiasi ulang melalui sms.",
                "produces": [
                    "application/json"
                ],
                "tags": [
                    "Area User"
                ],
                "summary": "User Resend Verification Link.",
                "parameters": [
                    {
                        "type": "string",
                        "description": "username",
                        "name": "username",
                        "in": "path",
                        "required": true
                    }
                ],
                "responses": {
                    "200": {
                        "description": "OK",
                        "schema": {
                            "$ref": "#/definitions/web.WebResponse"
                        }
                    }
                }
            }
        },
        "/reset-password": {
            "post": {
                "description": "Digunakan oleh user untuk nerubah password akunnya.",
                "produces": [
                    "application/json"
                ],
                "tags": [
                    "Area User"
                ],
                "summary": "User Merubah Password.",
                "parameters": [
                    {
                        "description": "the body to update password",
                        "name": "Body",
                        "in": "body",
                        "required": true,
                        "schema": {
                            "$ref": "#/definitions/web_user.UserUpdatePasswordRequest"
                        }
                    }
                ],
                "responses": {
                    "200": {
                        "description": "OK",
                        "schema": {
                            "allOf": [
                                {
                                    "$ref": "#/definitions/web.WebResponse"
                                },
                                {
                                    "type": "object",
                                    "properties": {
                                        "data": {
                                            "$ref": "#/definitions/web_user.UserResponse"
                                        }
                                    }
                                }
                            ]
                        }
                    }
                }
            }
        },
        "/saved-thread": {
            "get": {
                "security": [
                    {
                        "BearerToken": []
                    }
                ],
                "description": "Digunakan oleh user untuk mendapatkan daftar thread yang disimpan.",
                "produces": [
                    "application/json"
                ],
                "tags": [
                    "Saved Thread"
                ],
                "summary": "User Get All Saved Thread.",
                "parameters": [
                    {
                        "type": "string",
                        "description": "Authorization. How to input in swagger : 'Bearer \u003cinsert_your_token_here\u003e'",
                        "name": "Authorization",
                        "in": "header",
                        "required": true
                    }
                ],
                "responses": {
                    "200": {
                        "description": "OK",
                        "schema": {
                            "allOf": [
                                {
                                    "$ref": "#/definitions/web.WebResponse"
                                },
                                {
                                    "type": "object",
                                    "properties": {
                                        "data": {
                                            "type": "array",
                                            "items": {
                                                "$ref": "#/definitions/web_saved_thread.SavedThreadResponse"
                                            }
                                        }
                                    }
                                }
                            ]
                        }
                    }
                }
            }
        },
        "/saved-thread/delete/{threadId}": {
            "delete": {
                "security": [
                    {
                        "BearerToken": []
                    }
                ],
                "description": "Digunakan user untuk menghapus thread yang ia simpan.",
                "produces": [
                    "application/json"
                ],
                "tags": [
                    "Saved Thread"
                ],
                "summary": "User Delete Saved Thread.",
                "parameters": [
                    {
                        "type": "string",
                        "description": "thread id",
                        "name": "threadId",
                        "in": "path",
                        "required": true
                    },
                    {
                        "type": "string",
                        "description": "Authorization. How to input in swagger : 'Bearer \u003cinsert_your_token_here\u003e'",
                        "name": "Authorization",
                        "in": "header",
                        "required": true
                    }
                ],
                "responses": {
                    "200": {
                        "description": "OK",
                        "schema": {
                            "$ref": "#/definitions/web.WebResponse"
                        }
                    }
                }
            }
        },
        "/saved-thread/save/{threadId}": {
            "post": {
                "security": [
                    {
                        "BearerToken": []
                    }
                ],
                "description": "Digunakan oleh user untuk menyimpan thread user lain.",
                "produces": [
                    "application/json"
                ],
                "tags": [
                    "Saved Thread"
                ],
                "summary": "User Saving Someone Thread.",
                "parameters": [
                    {
                        "type": "string",
                        "description": "thread id",
                        "name": "threadId",
                        "in": "path",
                        "required": true
                    },
                    {
                        "type": "string",
                        "description": "Authorization. How to input in swagger : 'Bearer \u003cinsert_your_token_here\u003e'",
                        "name": "Authorization",
                        "in": "header",
                        "required": true
                    }
                ],
                "responses": {
                    "200": {
                        "description": "OK",
                        "schema": {
                            "$ref": "#/definitions/web.WebResponse"
                        }
                    }
                }
            }
        },
        "/thread": {
            "get": {
                "security": [
                    {
                        "BearerToken": []
                    }
                ],
                "description": "Digunakan oleh user untuk mendapatkan semua thread miliknya.",
                "produces": [
                    "application/json"
                ],
                "tags": [
                    "Thread"
                ],
                "summary": "User Get Personal Thread.",
                "parameters": [
                    {
                        "type": "string",
                        "description": "Authorization. How to input in swagger : 'Bearer \u003cinsert_your_token_here\u003e'",
                        "name": "Authorization",
                        "in": "header",
                        "required": true
                    }
                ],
                "responses": {
                    "200": {
                        "description": "OK",
                        "schema": {
                            "allOf": [
                                {
                                    "$ref": "#/definitions/web.WebResponse"
                                },
                                {
                                    "type": "object",
                                    "properties": {
                                        "data": {
                                            "type": "array",
                                            "items": {
                                                "$ref": "#/definitions/web_thread.ThreadResponse"
                                            }
                                        }
                                    }
                                }
                            ]
                        }
                    }
                }
            },
            "post": {
                "security": [
                    {
                        "BearerToken": []
                    }
                ],
                "description": "Digunakan oleh user untuk membuat Thread / Posting baru.",
                "produces": [
                    "application/json"
                ],
                "tags": [
                    "Thread"
                ],
                "summary": "User Create New Thread.",
                "parameters": [
                    {
                        "description": "the body to creating thread",
                        "name": "Body",
                        "in": "body",
                        "required": true,
                        "schema": {
                            "$ref": "#/definitions/web_thread.ThreadCreateRequest"
                        }
                    },
                    {
                        "type": "string",
                        "description": "Authorization. How to input in swagger : 'Bearer \u003cinsert_your_token_here\u003e'",
                        "name": "Authorization",
                        "in": "header",
                        "required": true
                    }
                ],
                "responses": {
                    "200": {
                        "description": "OK",
                        "schema": {
                            "allOf": [
                                {
                                    "$ref": "#/definitions/web.WebResponse"
                                },
                                {
                                    "type": "object",
                                    "properties": {
                                        "data": {
                                            "$ref": "#/definitions/web_thread.ThreadResponse"
                                        }
                                    }
                                }
                            ]
                        }
                    }
                }
            }
        },
        "/thread/all": {
            "get": {
                "security": [
                    {
                        "BearerToken": []
                    }
                ],
                "description": "Digunakan oleh user untuk mendapatkan seluruh Thread yang ada.",
                "produces": [
                    "application/json"
                ],
                "tags": [
                    "Thread"
                ],
                "summary": "User Get All Thread.",
                "responses": {
                    "200": {
                        "description": "OK",
                        "schema": {
                            "allOf": [
                                {
                                    "$ref": "#/definitions/web.WebResponse"
                                },
                                {
                                    "type": "object",
                                    "properties": {
                                        "data": {
                                            "type": "array",
                                            "items": {
                                                "$ref": "#/definitions/web_thread.ThreadResponse"
                                            }
                                        }
                                    }
                                }
                            ]
                        }
                    }
                }
            }
        },
        "/thread/{threadId}": {
            "get": {
                "security": [
                    {
                        "BearerToken": []
                    }
                ],
                "description": "Digunakan oleh user untuk mencari thread tertentu berdasarkan Id.",
                "produces": [
                    "application/json"
                ],
                "tags": [
                    "Thread"
                ],
                "summary": "User Get Thread.",
                "parameters": [
                    {
                        "type": "string",
                        "description": "thread id",
                        "name": "threadId",
                        "in": "path",
                        "required": true
                    },
                    {
                        "type": "string",
                        "description": "Authorization. How to input in swagger : 'Bearer \u003cinsert_your_token_here\u003e'",
                        "name": "Authorization",
                        "in": "header",
                        "required": true
                    }
                ],
                "responses": {
                    "200": {
                        "description": "OK",
                        "schema": {
                            "allOf": [
                                {
                                    "$ref": "#/definitions/web.WebResponse"
                                },
                                {
                                    "type": "object",
                                    "properties": {
                                        "data": {
                                            "$ref": "#/definitions/web_thread.ThreadResponse"
                                        }
                                    }
                                }
                            ]
                        }
                    }
                }
            },
            "put": {
                "security": [
                    {
                        "BearerToken": []
                    }
                ],
                "description": "Digunakan oleh user untuk mengubah isi Thread / Posting yang dimiliki.",
                "produces": [
                    "application/json"
                ],
                "tags": [
                    "Thread"
                ],
                "summary": "User Update Existing Thread.",
                "parameters": [
                    {
                        "description": "the body to updating thread",
                        "name": "Body",
                        "in": "body",
                        "required": true,
                        "schema": {
                            "$ref": "#/definitions/web_thread.ThreadCreateRequest"
                        }
                    },
                    {
                        "type": "string",
                        "description": "thread id",
                        "name": "threadId",
                        "in": "path",
                        "required": true
                    },
                    {
                        "type": "string",
                        "description": "Authorization. How to input in swagger : 'Bearer \u003cinsert_your_token_here\u003e'",
                        "name": "Authorization",
                        "in": "header",
                        "required": true
                    }
                ],
                "responses": {
                    "200": {
                        "description": "OK",
                        "schema": {
                            "allOf": [
                                {
                                    "$ref": "#/definitions/web.WebResponse"
                                },
                                {
                                    "type": "object",
                                    "properties": {
                                        "data": {
                                            "$ref": "#/definitions/web_thread.ThreadResponse"
                                        }
                                    }
                                }
                            ]
                        }
                    }
                }
            },
            "delete": {
                "security": [
                    {
                        "BearerToken": []
                    }
                ],
                "description": "Digunakan oleh user untuk menghapus Thread / Posting yang dimiliki.",
                "produces": [
                    "application/json"
                ],
                "tags": [
                    "Thread"
                ],
                "summary": "User Delete Existing Thread.",
                "parameters": [
                    {
                        "type": "string",
                        "description": "thread id",
                        "name": "threadId",
                        "in": "path",
                        "required": true
                    },
                    {
                        "type": "string",
                        "description": "Authorization. How to input in swagger : 'Bearer \u003cinsert_your_token_here\u003e'",
                        "name": "Authorization",
                        "in": "header",
                        "required": true
                    }
                ],
                "responses": {
                    "200": {
                        "description": "OK",
                        "schema": {
                            "$ref": "#/definitions/web.WebResponse"
                        }
                    }
                }
            }
        },
        "/verification/{id}/{token}": {
            "get": {
                "description": "Digunakan oleh user untuk verifikasi akun (link verifikasi dikirimkan melalui SMS).",
                "produces": [
                    "application/json"
                ],
                "tags": [
                    "Area User"
                ],
                "summary": "User Verif Akun.",
                "parameters": [
                    {
                        "type": "string",
                        "description": "token for verification",
                        "name": "token",
                        "in": "path",
                        "required": true
                    },
                    {
                        "type": "string",
                        "description": "id for verification",
                        "name": "id",
                        "in": "path",
                        "required": true
                    }
                ],
                "responses": {
                    "200": {
                        "description": "OK",
                        "schema": {
                            "$ref": "#/definitions/web.WebResponse"
                        }
                    }
                }
            }
        }
    },
    "definitions": {
        "web.WebResponse": {
            "type": "object",
            "properties": {
                "code": {
                    "type": "integer"
                },
                "data": {},
                "status": {
                    "type": "string"
                }
            }
        },
        "web_comment.CommentCreateRequest": {
            "type": "object",
            "required": [
                "content",
                "id_thread"
            ],
            "properties": {
                "content": {
                    "type": "string"
                },
                "id_thread": {
                    "type": "integer"
                }
            }
        },
        "web_comment.CommentResponse": {
            "type": "object",
            "properties": {
                "content": {
                    "type": "string"
                },
                "created_at": {
                    "type": "string"
                },
                "id_comment": {
                    "type": "integer"
                },
                "id_user": {
                    "type": "integer"
                },
                "likes": {
                    "type": "integer"
                },
                "updated_at": {
                    "type": "string"
                }
            }
        },
        "web_image.ImageRequest": {
            "type": "object",
            "required": [
                "id_thread",
                "image_url"
            ],
            "properties": {
                "id_thread": {
                    "type": "integer"
                },
                "image_url": {
                    "type": "string"
                }
            }
        },
        "web_image.ImageResponse": {
            "type": "object",
            "properties": {
                "id_image": {
                    "type": "integer"
                },
                "image_url": {
                    "type": "string"
                }
            }
        },
        "web_rating.RatingCreateRequest": {
            "type": "object",
            "required": [
                "id_thread",
                "rating"
            ],
            "properties": {
                "id_thread": {
                    "type": "integer"
                },
                "rating": {
                    "type": "integer",
                    "maximum": 5,
                    "minimum": 1
                }
            }
        },
        "web_saved_thread.SavedThreadResponse": {
            "type": "object",
            "properties": {
                "id_saved_thread": {
                    "type": "integer"
                },
                "thread": {
                    "$ref": "#/definitions/web_thread.ThreadResponse"
                }
            }
        },
        "web_thread.ThreadCreateRequest": {
            "type": "object",
            "required": [
                "content",
                "title"
            ],
            "properties": {
                "content": {
                    "type": "string"
                },
                "title": {
                    "type": "string"
                }
            }
        },
        "web_thread.ThreadResponse": {
            "type": "object",
            "properties": {
                "comments": {
                    "type": "array",
                    "items": {
                        "$ref": "#/definitions/web_comment.CommentResponse"
                    }
                },
                "content": {
                    "type": "string"
                },
                "created_at": {
                    "type": "string"
                },
                "id_author": {
                    "type": "integer"
                },
                "id_thread": {
                    "type": "integer"
                },
                "images_url": {
                    "type": "array",
                    "items": {
                        "$ref": "#/definitions/web_image.ImageResponse"
                    }
                },
                "rating": {
                    "type": "number"
                },
                "title": {
                    "type": "string"
                },
                "updated_at": {
                    "type": "string"
                }
            }
        },
        "web_user.UserLoginRequest": {
            "type": "object",
            "required": [
                "password",
                "username"
            ],
            "properties": {
                "password": {
                    "type": "string"
                },
                "username": {
                    "type": "string"
                }
            }
        },
        "web_user.UserLoginResponse": {
            "type": "object",
            "properties": {
                "expire_time": {
                    "type": "string"
                },
                "id_user": {
                    "type": "integer"
                },
                "phone": {
                    "type": "string"
                },
                "token": {
                    "type": "string"
                },
                "username": {
                    "type": "string"
                }
            }
        },
        "web_user.UserRegisterRequest": {
            "type": "object",
            "required": [
                "password",
                "phone",
                "username"
            ],
            "properties": {
                "password": {
                    "type": "string",
                    "minLength": 5
                },
                "phone": {
                    "type": "string"
                },
                "username": {
                    "type": "string",
                    "minLength": 5
                }
            }
        },
        "web_user.UserResponse": {
            "type": "object",
            "properties": {
                "id_user": {
                    "type": "integer"
                },
                "phone": {
                    "type": "string"
                },
                "username": {
                    "type": "string"
                }
            }
        },
        "web_user.UserUpdatePasswordRequest": {
            "type": "object",
            "required": [
                "new_password",
                "old_password",
                "username"
            ],
            "properties": {
                "new_password": {
                    "type": "string",
                    "minLength": 5
                },
                "old_password": {
                    "type": "string",
                    "minLength": 5
                },
                "username": {
                    "type": "string"
                }
            }
        }
    }
}